My Bechdel test
…
## Joining, by = "MOVIE"

proportions_table_supporting[is.na(proportions_table_supporting)] <- 0

# Merging the Leading and Supporting tables to get all the info we need to test movies in the same table
proportions_table <- full_join(proportions_table_leading, proportions_table_supporting) %>% 
  mutate(prop_female_leading = round(nb_leading_cast_female / nb_leading_cast, 2)) %>% 
  mutate(prop_female_supporting = round(nb_supporting_cast_female / nb_supporting_cast, 2))

## Joining, by = "MOVIE"

proportions_table

## # A tibble: 50 x 7
##    MOVIE nb_leading_cast nb_leading_cast~ nb_supporting_c~ nb_supporting_c~
##    <chr>           <int>            <dbl>            <int>            <dbl>
##  1 10 C~               3                1                5                2
##  2 Alic~               5                3               15                6
##  3 Arri~               3                1               48               20
##  4 Bad ~               6                6                8                4
##  5 Batm~               4                2              110               34
##  6 Capt~               9                2               12                4
##  7 Cent~               2                0               19                4
##  8 Dead~               1                0               28               11
##  9 Doct~               6                2               18                6
## 10 "Don~               4                1                6                4
## # ... with 40 more rows, and 2 more variables: prop_female_leading <dbl>,
## #   prop_female_supporting <dbl>
…
I want to explore A film fails if less than 50 % of its leading actors are women or if less than 50% of its supporting actors are women

test_table <- proportions_table %>% 
  mutate(iva_bechdel_num = case_when(
         prop_female_leading >= 0.5 & prop_female_supporting >= 0.5 ~ 1,
         prop_female_leading < 0.5 | prop_female_supporting < 0.5 ~ 0
         )) %>% 
  mutate(iva_bechdel = case_when(
         prop_female_leading >= 0.5 & prop_female_supporting >= 0.5 ~ "PASS",
         prop_female_leading < 0.5 | prop_female_supporting < 0.5 ~ "FAIL"
         ))
test_table

## # A tibble: 50 x 9
##    MOVIE nb_leading_cast nb_leading_cast~ nb_supporting_c~ nb_supporting_c~
##    <chr>           <int>            <dbl>            <int>            <dbl>
##  1 10 C~               3                1                5                2
##  2 Alic~               5                3               15                6
##  3 Arri~               3                1               48               20
##  4 Bad ~               6                6                8                4
##  5 Batm~               4                2              110               34
##  6 Capt~               9                2               12                4
##  7 Cent~               2                0               19                4
##  8 Dead~               1                0               28               11
##  9 Doct~               6                2               18                6
## 10 "Don~               4                1                6                4
## # ... with 40 more rows, and 4 more variables: prop_female_leading <dbl>,
## #   prop_female_supporting <dbl>, iva_bechdel_num <dbl>, iva_bechdel <chr>
…
I now want to explore A films fails if less than 50 % of its leading actors are women or if less than 30% of its supporting actors are women

test_table_v2 <- test_table %>% 
  mutate(iva_bechdel_num_v2 = case_when(
         prop_female_leading >= 0.5 & prop_female_supporting >= 0.3 ~ 1,
         prop_female_leading < 0.5 | prop_female_supporting < 0.3 ~ 0
         )) %>% 
  mutate(iva_bechdel_v2 = case_when(
         prop_female_leading >= 0.5 & prop_female_supporting >= 0.3 ~ "PASS",
         prop_female_leading < 0.5 | prop_female_supporting < 0.3 ~ "FAIL"
         ))
test_table_v2

## # A tibble: 50 x 11
##    MOVIE nb_leading_cast nb_leading_cast~ nb_supporting_c~ nb_supporting_c~
##    <chr>           <int>            <dbl>            <int>            <dbl>
##  1 10 C~               3                1                5                2
##  2 Alic~               5                3               15                6
##  3 Arri~               3                1               48               20
##  4 Bad ~               6                6                8                4
##  5 Batm~               4                2              110               34
##  6 Capt~               9                2               12                4
##  7 Cent~               2                0               19                4
##  8 Dead~               1                0               28               11
##  9 Doct~               6                2               18                6
## 10 "Don~               4                1                6                4
## # ... with 40 more rows, and 6 more variables: prop_female_leading <dbl>,
## #   prop_female_supporting <dbl>, iva_bechdel_num <dbl>,
## #   iva_bechdel <chr>, iva_bechdel_num_v2 <dbl>, iva_bechdel_v2 <chr>
…
I now want to explore A films fails if less than 50 % of its leading actors are women or if less than 30% of its supporting actors are women, or just if less than 30% of its supporting actors are women if there is only one leading actor

test_table_v3 <- test_table_v2 %>% 
  mutate(iva_bechdel_num_v3 = case_when(
         (prop_female_leading >= 0.5 | nb_leading_cast == 1) & prop_female_supporting >= 0.3 ~ 1,
         (prop_female_leading < 0.5 & nb_leading_cast > 1) | prop_female_supporting < 0.3 ~ 0
         )) %>% 
  mutate(iva_bechdel_v3 = case_when(
         (prop_female_leading >= 0.5 | nb_leading_cast == 1) & prop_female_supporting >= 0.3 ~ "PASS",
        (prop_female_leading < 0.5 & nb_leading_cast > 1) | prop_female_supporting < 0.3 ~ "FAIL"
         ))
test_table_v3

## # A tibble: 50 x 13
##    MOVIE nb_leading_cast nb_leading_cast~ nb_supporting_c~ nb_supporting_c~
##    <chr>           <int>            <dbl>            <int>            <dbl>
##  1 10 C~               3                1                5                2
##  2 Alic~               5                3               15                6
##  3 Arri~               3                1               48               20
##  4 Bad ~               6                6                8                4
##  5 Batm~               4                2              110               34
##  6 Capt~               9                2               12                4
##  7 Cent~               2                0               19                4
##  8 Dead~               1                0               28               11
##  9 Doct~               6                2               18                6
## 10 "Don~               4                1                6                4
## # ... with 40 more rows, and 8 more variables: prop_female_leading <dbl>,
## #   prop_female_supporting <dbl>, iva_bechdel_num <dbl>,
## #   iva_bechdel <chr>, iva_bechdel_num_v2 <dbl>, iva_bechdel_v2 <chr>,
## #   iva_bechdel_num_v3 <dbl>, iva_bechdel_v3 <chr>
…
This graph is a scatterplot of the number of leading actors and of supporting actors for 2016 top 50 movies, both passing or failing the iva_bechdel_v3 test. We dont see any obvious correlation between the number of supporting or leading actors and the success or failure at this test. Therefore, this test does not seem obviously biaised and this is why I decide to stop my explorations here.

Comparison with other Bechdel tests

To reflect on the efficiency of my new iva_bechdel_v3 test, I would like to compare its results with the results of other bechdel tests. Lets rank the movies according to the number of bechdel tests they pass out of 13.

# Ranking the movies according to the number of bechdel tests they pass out of 13.
new_bechdel_ordered <- new_bechdel %>% 
  mutate(sum_of_scores = new_bechdel %>% select(-movie) %>% rowSums) %>% 
  select(movie, sum_of_scores) %>% 
  arrange(desc(sum_of_scores))
# Displaying the results
new_bechdel_ordered

## # A tibble: 50 x 2
##    movie                              sum_of_scores
##    <chr>                                      <dbl>
##  1 Deadpool                                      12
##  2 Doctor Strange                                12
##  3 The Secret Life of Pets                       12
##  4 Jason Bourne                                  11
##  5 Rogue One                                     11
##  6 The Accountant                                11
##  7 The Jungle Book                               11
##  8 The Legend of Tarzan                          11
##  9 10 Cloverfield Lane                           10
## 10 Batman v Superman: Dawn of Justice            10
## # ... with 40 more rows
…
